{
    "users":[
        {
            "username": "mai",
            "email": "mai@gmail.com",
            "name": "Mãi",
            "role":"user",
            "createdat": "2022-06-29T00:00:00.000Z"
        },
        {
            "username": "thien",
            "email": "thien@gmail.com",
            "name": "thien",
            "role":"user",
            "createdat": "2022-06-29T00:00:00.000Z"
        }
    ],
    "pagination": {
        "totalPages": 3,
        "totalRows": 5,
        "page": 2,
        "limit": 2
    }
}